^D:\SKILLBOX\VISUAL STUDIO\CONSOLEAPPLICATION1\CONSOLEAPPLICATION1.CPP
D:\SKILLBOX\VISUAL STUDIO\CONSOLEAPPLICATION1\DEBUG\VC142.PDB
D:\SKILLBOX\VISUAL STUDIO\CONSOLEAPPLICATION1\DEBUG\VC142.IDB
D:\SKILLBOX\VISUAL STUDIO\CONSOLEAPPLICATION1\DEBUG\CONSOLEAPPLICATION1.OBJ
